-- Merging decision tree log ---
provider#android.support.v4.content.FileProvider
INJECTED from /home/ehofmann/dev/junction2017/movesense-mobile-lib/android/samples/sampleapp/src/main/AndroidManifest.xml:56:9-64:20
	android:grantUriPermissions
		ADDED from /home/ehofmann/dev/junction2017/movesense-mobile-lib/android/samples/sampleapp/src/main/AndroidManifest.xml:60:13-47
	android:authorities
		INJECTED from /home/ehofmann/dev/junction2017/movesense-mobile-lib/android/samples/sampleapp/src/main/AndroidManifest.xml
		ADDED from /home/ehofmann/dev/junction2017/movesense-mobile-lib/android/samples/sampleapp/src/main/AndroidManifest.xml:58:13-51
	android:exported
		ADDED from /home/ehofmann/dev/junction2017/movesense-mobile-lib/android/samples/sampleapp/src/main/AndroidManifest.xml:59:13-37
	android:name
		ADDED from /home/ehofmann/dev/junction2017/movesense-mobile-lib/android/samples/sampleapp/src/main/AndroidManifest.xml:57:13-67
manifest
ADDED from /home/ehofmann/dev/junction2017/movesense-mobile-lib/android/samples/sampleapp/src/main/AndroidManifest.xml:2:1-141:12
INJECTED from /home/ehofmann/dev/junction2017/movesense-mobile-lib/android/samples/sampleapp/src/main/AndroidManifest.xml:2:1-141:12
INJECTED from /home/ehofmann/dev/junction2017/movesense-mobile-lib/android/samples/sampleapp/src/main/AndroidManifest.xml:2:1-141:12
INJECTED from /home/ehofmann/dev/junction2017/movesense-mobile-lib/android/samples/sampleapp/src/main/AndroidManifest.xml:2:1-141:12
MERGED from [pub.devrel:easypermissions:0.2.1] /home/ehofmann/.gradle/caches/transforms-1/files-1.1/easypermissions-0.2.1.aar/c3618cb397e00d74750dcdeda867fde2/AndroidManifest.xml:2:1-14:12
MERGED from [com.android.support:appcompat-v7:25.4.0] /home/ehofmann/.gradle/caches/transforms-1/files-1.1/appcompat-v7-25.4.0.aar/021bd879767a88374281eec5ba3491c1/AndroidManifest.xml:17:1-31:12
MERGED from [com.android.support:recyclerview-v7:25.4.0] /home/ehofmann/.gradle/caches/transforms-1/files-1.1/recyclerview-v7-25.4.0.aar/49f95e6664274d67795c5aea23cdad80/AndroidManifest.xml:17:1-28:12
MERGED from [com.polidea.rxandroidble:rxandroidble:1.4.1] /home/ehofmann/.gradle/caches/transforms-1/files-1.1/rxandroidble-1.4.1.aar/cc93d24336f8d0cf9f442535fcd307fc/AndroidManifest.xml:2:1-18:12
MERGED from [io.reactivex:rxandroid:1.2.1] /home/ehofmann/.gradle/caches/transforms-1/files-1.1/rxandroid-1.2.1.aar/d96265de51269bb21107f59109dc1dbb/AndroidManifest.xml:15:1-21:12
MERGED from [no.nordicsemi.android:dfu:1.4.2] /home/ehofmann/.gradle/caches/transforms-1/files-1.1/dfu-1.4.2.aar/5fe75c3f7ea08927e948bc969fc342ec/AndroidManifest.xml:2:1-14:12
MERGED from [com.android.support.test.espresso.idling:idling-concurrent:3.0.0] /home/ehofmann/.gradle/caches/transforms-1/files-1.1/idling-concurrent-3.0.0.aar/4898a31ef80eec470872533eec85851a/AndroidManifest.xml:17:1-21:12
MERGED from [:mdslib:1.6.0(1)-release] /home/ehofmann/.gradle/caches/transforms-1/files-1.1/mdslib-1.6.0(1)-release.aar/a4f6098d0e4572f74e7635c69bf108df/AndroidManifest.xml:2:1-12:12
MERGED from [com.jakewharton:butterknife:8.5.1] /home/ehofmann/.gradle/caches/transforms-1/files-1.1/butterknife-8.5.1.aar/ade1b70edf68a9cf4dcbad766a8cc782/AndroidManifest.xml:2:1-7:12
MERGED from [com.jjoe64:graphview:4.2.1] /home/ehofmann/.gradle/caches/transforms-1/files-1.1/graphview-4.2.1.aar/9a6718eae730913f854b5a6ff7b6605e/AndroidManifest.xml:2:1-14:12
MERGED from [com.google.android.gms:play-services-drive:11.0.1] /home/ehofmann/.gradle/caches/transforms-1/files-1.1/play-services-drive-11.0.1.aar/f45dbf2294add599ed5ce260376d006b/AndroidManifest.xml:16:1-19:12
MERGED from [com.google.android.gms:play-services-auth:11.0.1] /home/ehofmann/.gradle/caches/transforms-1/files-1.1/play-services-auth-11.0.1.aar/0b361dd53320fe40c7b1a4ee7ffc7a6b/AndroidManifest.xml:16:1-26:12
MERGED from [com.android.support.constraint:constraint-layout:1.0.2] /home/ehofmann/.gradle/caches/transforms-1/files-1.1/constraint-layout-1.0.2.aar/1f014d207441fb45b23f821f8ef04015/AndroidManifest.xml:2:1-11:12
MERGED from [com.hanks:htextview-evaporate:0.1.1] /home/ehofmann/.gradle/caches/transforms-1/files-1.1/htextview-evaporate-0.1.1.aar/af0502f0cb7cad2d8150e741135fcbd3/AndroidManifest.xml:2:1-16:12
MERGED from [com.google.android.gms:play-services-auth-base:11.0.1] /home/ehofmann/.gradle/caches/transforms-1/files-1.1/play-services-auth-base-11.0.1.aar/c103d0edb64b04f12a76e405d2e05f39/AndroidManifest.xml:2:1-5:12
MERGED from [com.google.android.gms:play-services-base:11.0.1] /home/ehofmann/.gradle/caches/transforms-1/files-1.1/play-services-base-11.0.1.aar/102cb29b4c618cb9189f125a06801a64/AndroidManifest.xml:16:1-21:12
MERGED from [com.google.android.gms:play-services-tasks:11.0.1] /home/ehofmann/.gradle/caches/transforms-1/files-1.1/play-services-tasks-11.0.1.aar/9b62d4d03efb80283903f5d43b1f0317/AndroidManifest.xml:2:1-5:12
MERGED from [com.google.android.gms:play-services-basement:11.0.1] /home/ehofmann/.gradle/caches/transforms-1/files-1.1/play-services-basement-11.0.1.aar/0cfa67db2c278389694597fa4900987a/AndroidManifest.xml:16:1-23:12
MERGED from [com.android.support:support-v4:25.4.0] /home/ehofmann/.gradle/caches/transforms-1/files-1.1/support-v4-25.4.0.aar/9949e1134677a6bff483e976c7f11347/AndroidManifest.xml:17:1-31:12
MERGED from [com.android.support:support-fragment:25.4.0] /home/ehofmann/.gradle/caches/transforms-1/files-1.1/support-fragment-25.4.0.aar/db1a9de46a394ffcc5dc569ab48d5546/AndroidManifest.xml:17:1-31:12
MERGED from [com.android.support:animated-vector-drawable:25.4.0] /home/ehofmann/.gradle/caches/transforms-1/files-1.1/animated-vector-drawable-25.4.0.aar/326a88862c0dc645badaf9d0342c579e/AndroidManifest.xml:17:1-28:12
MERGED from [com.android.support:support-core-ui:25.4.0] /home/ehofmann/.gradle/caches/transforms-1/files-1.1/support-core-ui-25.4.0.aar/a439e2c45415755cf73841eaf2bbcc9f/AndroidManifest.xml:17:1-31:12
MERGED from [com.android.support:support-media-compat:25.4.0] /home/ehofmann/.gradle/caches/transforms-1/files-1.1/support-media-compat-25.4.0.aar/1eec910b5cb7c7283ee76dd90cd9a56d/AndroidManifest.xml:17:1-31:12
MERGED from [com.android.support:support-core-utils:25.4.0] /home/ehofmann/.gradle/caches/transforms-1/files-1.1/support-core-utils-25.4.0.aar/8bbd005ef37a997f7ed05fa97f394833/AndroidManifest.xml:17:1-31:12
MERGED from [com.android.support:support-vector-drawable:25.4.0] /home/ehofmann/.gradle/caches/transforms-1/files-1.1/support-vector-drawable-25.4.0.aar/25207c4cdea332022e5a84e99964fdb3/AndroidManifest.xml:17:1-28:12
MERGED from [com.android.support:support-compat:25.4.0] /home/ehofmann/.gradle/caches/transforms-1/files-1.1/support-compat-25.4.0.aar/87cfc0bcfe55c7cf242f4299ff3fa257/AndroidManifest.xml:17:1-31:12
MERGED from [com.artemzin.rxjava:proguard-rules:1.3.1.0] /home/ehofmann/.gradle/caches/transforms-1/files-1.1/proguard-rules-1.3.1.0.aar/c373a2fe3b9e4d5d61833cc6ec76026e/AndroidManifest.xml:2:1-10:12
MERGED from [com.android.support.test.espresso:espresso-idling-resource:3.0.0] /home/ehofmann/.gradle/caches/transforms-1/files-1.1/espresso-idling-resource-3.0.0.aar/e2d6e05cfed8e8301097ecb665890a28/AndroidManifest.xml:17:1-21:12
MERGED from [com.hanks:htextview-base:0.1.1] /home/ehofmann/.gradle/caches/transforms-1/files-1.1/htextview-base-0.1.1.aar/e14479a79b512341940d9820e90590e4/AndroidManifest.xml:2:1-11:12
INJECTED from /home/ehofmann/dev/junction2017/movesense-mobile-lib/android/samples/sampleapp/src/main/AndroidManifest.xml:2:1-141:12
INJECTED from /home/ehofmann/dev/junction2017/movesense-mobile-lib/android/samples/sampleapp/src/main/AndroidManifest.xml:2:1-141:12
INJECTED from /home/ehofmann/dev/junction2017/movesense-mobile-lib/android/samples/sampleapp/src/main/AndroidManifest.xml:2:1-141:12
	package
		ADDED from /home/ehofmann/dev/junction2017/movesense-mobile-lib/android/samples/sampleapp/src/main/AndroidManifest.xml:3:11-48
		INJECTED from /home/ehofmann/dev/junction2017/movesense-mobile-lib/android/samples/sampleapp/src/main/AndroidManifest.xml
		INJECTED from /home/ehofmann/dev/junction2017/movesense-mobile-lib/android/samples/sampleapp/src/main/AndroidManifest.xml
	android:versionName
		INJECTED from /home/ehofmann/dev/junction2017/movesense-mobile-lib/android/samples/sampleapp/src/main/AndroidManifest.xml
		ADDED from /home/ehofmann/dev/junction2017/movesense-mobile-lib/android/samples/sampleapp/src/main/AndroidManifest.xml:2:1-141:12
		INJECTED from /home/ehofmann/dev/junction2017/movesense-mobile-lib/android/samples/sampleapp/src/main/AndroidManifest.xml
	android:versionCode
		INJECTED from /home/ehofmann/dev/junction2017/movesense-mobile-lib/android/samples/sampleapp/src/main/AndroidManifest.xml
		ADDED from /home/ehofmann/dev/junction2017/movesense-mobile-lib/android/samples/sampleapp/src/main/AndroidManifest.xml:2:1-141:12
		INJECTED from /home/ehofmann/dev/junction2017/movesense-mobile-lib/android/samples/sampleapp/src/main/AndroidManifest.xml
	xmlns:android
		ADDED from /home/ehofmann/dev/junction2017/movesense-mobile-lib/android/samples/sampleapp/src/main/AndroidManifest.xml:2:11-69
uses-permission#android.permission.WRITE_EXTERNAL_STORAGE
ADDED from /home/ehofmann/dev/junction2017/movesense-mobile-lib/android/samples/sampleapp/src/main/AndroidManifest.xml:5:5-80
	android:name
		ADDED from /home/ehofmann/dev/junction2017/movesense-mobile-lib/android/samples/sampleapp/src/main/AndroidManifest.xml:5:22-78
uses-permission#android.permission.READ_EXTERNAL_STORAGE
ADDED from /home/ehofmann/dev/junction2017/movesense-mobile-lib/android/samples/sampleapp/src/main/AndroidManifest.xml:6:5-79
	android:name
		ADDED from /home/ehofmann/dev/junction2017/movesense-mobile-lib/android/samples/sampleapp/src/main/AndroidManifest.xml:6:22-77
uses-permission#android.permission.INTERNET
ADDED from /home/ehofmann/dev/junction2017/movesense-mobile-lib/android/samples/sampleapp/src/main/AndroidManifest.xml:7:5-66
	android:name
		ADDED from /home/ehofmann/dev/junction2017/movesense-mobile-lib/android/samples/sampleapp/src/main/AndroidManifest.xml:7:22-64
uses-permission#android.permission.ACCESS_NETWORK_STATE
ADDED from /home/ehofmann/dev/junction2017/movesense-mobile-lib/android/samples/sampleapp/src/main/AndroidManifest.xml:8:5-78
	android:name
		ADDED from /home/ehofmann/dev/junction2017/movesense-mobile-lib/android/samples/sampleapp/src/main/AndroidManifest.xml:8:22-76
uses-permission#android.permission.ACCESS_COARSE_LOCATION
ADDED from /home/ehofmann/dev/junction2017/movesense-mobile-lib/android/samples/sampleapp/src/main/AndroidManifest.xml:9:5-80
	android:name
		ADDED from /home/ehofmann/dev/junction2017/movesense-mobile-lib/android/samples/sampleapp/src/main/AndroidManifest.xml:9:22-78
uses-permission#android.permission.GET_ACCOUNTS
ADDED from /home/ehofmann/dev/junction2017/movesense-mobile-lib/android/samples/sampleapp/src/main/AndroidManifest.xml:10:5-70
	android:name
		ADDED from /home/ehofmann/dev/junction2017/movesense-mobile-lib/android/samples/sampleapp/src/main/AndroidManifest.xml:10:22-68
uses-permission#android.permission.BLUETOOTH
ADDED from /home/ehofmann/dev/junction2017/movesense-mobile-lib/android/samples/sampleapp/src/main/AndroidManifest.xml:11:5-67
MERGED from [com.polidea.rxandroidble:rxandroidble:1.4.1] /home/ehofmann/.gradle/caches/transforms-1/files-1.1/rxandroidble-1.4.1.aar/cc93d24336f8d0cf9f442535fcd307fc/AndroidManifest.xml:11:5-68
MERGED from [com.polidea.rxandroidble:rxandroidble:1.4.1] /home/ehofmann/.gradle/caches/transforms-1/files-1.1/rxandroidble-1.4.1.aar/cc93d24336f8d0cf9f442535fcd307fc/AndroidManifest.xml:11:5-68
MERGED from [no.nordicsemi.android:dfu:1.4.2] /home/ehofmann/.gradle/caches/transforms-1/files-1.1/dfu-1.4.2.aar/5fe75c3f7ea08927e948bc969fc342ec/AndroidManifest.xml:11:5-68
MERGED from [no.nordicsemi.android:dfu:1.4.2] /home/ehofmann/.gradle/caches/transforms-1/files-1.1/dfu-1.4.2.aar/5fe75c3f7ea08927e948bc969fc342ec/AndroidManifest.xml:11:5-68
	android:name
		ADDED from /home/ehofmann/dev/junction2017/movesense-mobile-lib/android/samples/sampleapp/src/main/AndroidManifest.xml:11:22-65
uses-permission#android.permission.MANAGE_DOCUMENTS
ADDED from /home/ehofmann/dev/junction2017/movesense-mobile-lib/android/samples/sampleapp/src/main/AndroidManifest.xml:12:5-74
	android:name
		ADDED from /home/ehofmann/dev/junction2017/movesense-mobile-lib/android/samples/sampleapp/src/main/AndroidManifest.xml:12:22-72
uses-feature#android.hardware.bluetooth_le
ADDED from /home/ehofmann/dev/junction2017/movesense-mobile-lib/android/samples/sampleapp/src/main/AndroidManifest.xml:14:5-16:34
	android:required
		ADDED from /home/ehofmann/dev/junction2017/movesense-mobile-lib/android/samples/sampleapp/src/main/AndroidManifest.xml:16:9-32
	android:name
		ADDED from /home/ehofmann/dev/junction2017/movesense-mobile-lib/android/samples/sampleapp/src/main/AndroidManifest.xml:15:9-53
application
ADDED from /home/ehofmann/dev/junction2017/movesense-mobile-lib/android/samples/sampleapp/src/main/AndroidManifest.xml:18:5-139:19
MERGED from [pub.devrel:easypermissions:0.2.1] /home/ehofmann/.gradle/caches/transforms-1/files-1.1/easypermissions-0.2.1.aar/c3618cb397e00d74750dcdeda867fde2/AndroidManifest.xml:12:5-20
MERGED from [pub.devrel:easypermissions:0.2.1] /home/ehofmann/.gradle/caches/transforms-1/files-1.1/easypermissions-0.2.1.aar/c3618cb397e00d74750dcdeda867fde2/AndroidManifest.xml:12:5-20
MERGED from [com.android.support:appcompat-v7:25.4.0] /home/ehofmann/.gradle/caches/transforms-1/files-1.1/appcompat-v7-25.4.0.aar/021bd879767a88374281eec5ba3491c1/AndroidManifest.xml:25:5-29:19
MERGED from [com.android.support:appcompat-v7:25.4.0] /home/ehofmann/.gradle/caches/transforms-1/files-1.1/appcompat-v7-25.4.0.aar/021bd879767a88374281eec5ba3491c1/AndroidManifest.xml:25:5-29:19
MERGED from [com.android.support:recyclerview-v7:25.4.0] /home/ehofmann/.gradle/caches/transforms-1/files-1.1/recyclerview-v7-25.4.0.aar/49f95e6664274d67795c5aea23cdad80/AndroidManifest.xml:22:5-26:19
MERGED from [com.android.support:recyclerview-v7:25.4.0] /home/ehofmann/.gradle/caches/transforms-1/files-1.1/recyclerview-v7-25.4.0.aar/49f95e6664274d67795c5aea23cdad80/AndroidManifest.xml:22:5-26:19
MERGED from [com.polidea.rxandroidble:rxandroidble:1.4.1] /home/ehofmann/.gradle/caches/transforms-1/files-1.1/rxandroidble-1.4.1.aar/cc93d24336f8d0cf9f442535fcd307fc/AndroidManifest.xml:16:5-53
MERGED from [com.polidea.rxandroidble:rxandroidble:1.4.1] /home/ehofmann/.gradle/caches/transforms-1/files-1.1/rxandroidble-1.4.1.aar/cc93d24336f8d0cf9f442535fcd307fc/AndroidManifest.xml:16:5-53
MERGED from [com.jjoe64:graphview:4.2.1] /home/ehofmann/.gradle/caches/transforms-1/files-1.1/graphview-4.2.1.aar/9a6718eae730913f854b5a6ff7b6605e/AndroidManifest.xml:11:5-12:19
MERGED from [com.jjoe64:graphview:4.2.1] /home/ehofmann/.gradle/caches/transforms-1/files-1.1/graphview-4.2.1.aar/9a6718eae730913f854b5a6ff7b6605e/AndroidManifest.xml:11:5-12:19
MERGED from [com.google.android.gms:play-services-drive:11.0.1] /home/ehofmann/.gradle/caches/transforms-1/files-1.1/play-services-drive-11.0.1.aar/f45dbf2294add599ed5ce260376d006b/AndroidManifest.xml:18:5-19
MERGED from [com.google.android.gms:play-services-drive:11.0.1] /home/ehofmann/.gradle/caches/transforms-1/files-1.1/play-services-drive-11.0.1.aar/f45dbf2294add599ed5ce260376d006b/AndroidManifest.xml:18:5-19
MERGED from [com.google.android.gms:play-services-auth:11.0.1] /home/ehofmann/.gradle/caches/transforms-1/files-1.1/play-services-auth-11.0.1.aar/0b361dd53320fe40c7b1a4ee7ffc7a6b/AndroidManifest.xml:19:5-25:19
MERGED from [com.google.android.gms:play-services-auth:11.0.1] /home/ehofmann/.gradle/caches/transforms-1/files-1.1/play-services-auth-11.0.1.aar/0b361dd53320fe40c7b1a4ee7ffc7a6b/AndroidManifest.xml:19:5-25:19
MERGED from [com.android.support.constraint:constraint-layout:1.0.2] /home/ehofmann/.gradle/caches/transforms-1/files-1.1/constraint-layout-1.0.2.aar/1f014d207441fb45b23f821f8ef04015/AndroidManifest.xml:9:5-20
MERGED from [com.android.support.constraint:constraint-layout:1.0.2] /home/ehofmann/.gradle/caches/transforms-1/files-1.1/constraint-layout-1.0.2.aar/1f014d207441fb45b23f821f8ef04015/AndroidManifest.xml:9:5-20
MERGED from [com.hanks:htextview-evaporate:0.1.1] /home/ehofmann/.gradle/caches/transforms-1/files-1.1/htextview-evaporate-0.1.1.aar/af0502f0cb7cad2d8150e741135fcbd3/AndroidManifest.xml:11:5-14:19
MERGED from [com.hanks:htextview-evaporate:0.1.1] /home/ehofmann/.gradle/caches/transforms-1/files-1.1/htextview-evaporate-0.1.1.aar/af0502f0cb7cad2d8150e741135fcbd3/AndroidManifest.xml:11:5-14:19
MERGED from [com.google.android.gms:play-services-base:11.0.1] /home/ehofmann/.gradle/caches/transforms-1/files-1.1/play-services-base-11.0.1.aar/102cb29b4c618cb9189f125a06801a64/AndroidManifest.xml:18:5-20:19
MERGED from [com.google.android.gms:play-services-base:11.0.1] /home/ehofmann/.gradle/caches/transforms-1/files-1.1/play-services-base-11.0.1.aar/102cb29b4c618cb9189f125a06801a64/AndroidManifest.xml:18:5-20:19
MERGED from [com.google.android.gms:play-services-tasks:11.0.1] /home/ehofmann/.gradle/caches/transforms-1/files-1.1/play-services-tasks-11.0.1.aar/9b62d4d03efb80283903f5d43b1f0317/AndroidManifest.xml:4:5-19
MERGED from [com.google.android.gms:play-services-tasks:11.0.1] /home/ehofmann/.gradle/caches/transforms-1/files-1.1/play-services-tasks-11.0.1.aar/9b62d4d03efb80283903f5d43b1f0317/AndroidManifest.xml:4:5-19
MERGED from [com.google.android.gms:play-services-basement:11.0.1] /home/ehofmann/.gradle/caches/transforms-1/files-1.1/play-services-basement-11.0.1.aar/0cfa67db2c278389694597fa4900987a/AndroidManifest.xml:19:5-21:19
MERGED from [com.google.android.gms:play-services-basement:11.0.1] /home/ehofmann/.gradle/caches/transforms-1/files-1.1/play-services-basement-11.0.1.aar/0cfa67db2c278389694597fa4900987a/AndroidManifest.xml:19:5-21:19
MERGED from [com.android.support:support-v4:25.4.0] /home/ehofmann/.gradle/caches/transforms-1/files-1.1/support-v4-25.4.0.aar/9949e1134677a6bff483e976c7f11347/AndroidManifest.xml:25:5-29:19
MERGED from [com.android.support:support-v4:25.4.0] /home/ehofmann/.gradle/caches/transforms-1/files-1.1/support-v4-25.4.0.aar/9949e1134677a6bff483e976c7f11347/AndroidManifest.xml:25:5-29:19
MERGED from [com.android.support:support-fragment:25.4.0] /home/ehofmann/.gradle/caches/transforms-1/files-1.1/support-fragment-25.4.0.aar/db1a9de46a394ffcc5dc569ab48d5546/AndroidManifest.xml:25:5-29:19
MERGED from [com.android.support:support-fragment:25.4.0] /home/ehofmann/.gradle/caches/transforms-1/files-1.1/support-fragment-25.4.0.aar/db1a9de46a394ffcc5dc569ab48d5546/AndroidManifest.xml:25:5-29:19
MERGED from [com.android.support:animated-vector-drawable:25.4.0] /home/ehofmann/.gradle/caches/transforms-1/files-1.1/animated-vector-drawable-25.4.0.aar/326a88862c0dc645badaf9d0342c579e/AndroidManifest.xml:22:5-26:19
MERGED from [com.android.support:animated-vector-drawable:25.4.0] /home/ehofmann/.gradle/caches/transforms-1/files-1.1/animated-vector-drawable-25.4.0.aar/326a88862c0dc645badaf9d0342c579e/AndroidManifest.xml:22:5-26:19
MERGED from [com.android.support:support-core-ui:25.4.0] /home/ehofmann/.gradle/caches/transforms-1/files-1.1/support-core-ui-25.4.0.aar/a439e2c45415755cf73841eaf2bbcc9f/AndroidManifest.xml:25:5-29:19
MERGED from [com.android.support:support-core-ui:25.4.0] /home/ehofmann/.gradle/caches/transforms-1/files-1.1/support-core-ui-25.4.0.aar/a439e2c45415755cf73841eaf2bbcc9f/AndroidManifest.xml:25:5-29:19
MERGED from [com.android.support:support-media-compat:25.4.0] /home/ehofmann/.gradle/caches/transforms-1/files-1.1/support-media-compat-25.4.0.aar/1eec910b5cb7c7283ee76dd90cd9a56d/AndroidManifest.xml:25:5-29:19
MERGED from [com.android.support:support-media-compat:25.4.0] /home/ehofmann/.gradle/caches/transforms-1/files-1.1/support-media-compat-25.4.0.aar/1eec910b5cb7c7283ee76dd90cd9a56d/AndroidManifest.xml:25:5-29:19
MERGED from [com.android.support:support-core-utils:25.4.0] /home/ehofmann/.gradle/caches/transforms-1/files-1.1/support-core-utils-25.4.0.aar/8bbd005ef37a997f7ed05fa97f394833/AndroidManifest.xml:25:5-29:19
MERGED from [com.android.support:support-core-utils:25.4.0] /home/ehofmann/.gradle/caches/transforms-1/files-1.1/support-core-utils-25.4.0.aar/8bbd005ef37a997f7ed05fa97f394833/AndroidManifest.xml:25:5-29:19
MERGED from [com.android.support:support-vector-drawable:25.4.0] /home/ehofmann/.gradle/caches/transforms-1/files-1.1/support-vector-drawable-25.4.0.aar/25207c4cdea332022e5a84e99964fdb3/AndroidManifest.xml:22:5-26:19
MERGED from [com.android.support:support-vector-drawable:25.4.0] /home/ehofmann/.gradle/caches/transforms-1/files-1.1/support-vector-drawable-25.4.0.aar/25207c4cdea332022e5a84e99964fdb3/AndroidManifest.xml:22:5-26:19
MERGED from [com.android.support:support-compat:25.4.0] /home/ehofmann/.gradle/caches/transforms-1/files-1.1/support-compat-25.4.0.aar/87cfc0bcfe55c7cf242f4299ff3fa257/AndroidManifest.xml:25:5-29:19
MERGED from [com.android.support:support-compat:25.4.0] /home/ehofmann/.gradle/caches/transforms-1/files-1.1/support-compat-25.4.0.aar/87cfc0bcfe55c7cf242f4299ff3fa257/AndroidManifest.xml:25:5-29:19
	android:supportsRtl
		ADDED from /home/ehofmann/dev/junction2017/movesense-mobile-lib/android/samples/sampleapp/src/main/AndroidManifest.xml:23:9-35
	android:label
		ADDED from /home/ehofmann/dev/junction2017/movesense-mobile-lib/android/samples/sampleapp/src/main/AndroidManifest.xml:22:9-41
	android:icon
		ADDED from /home/ehofmann/dev/junction2017/movesense-mobile-lib/android/samples/sampleapp/src/main/AndroidManifest.xml:21:9-43
	android:allowBackup
		ADDED from /home/ehofmann/dev/junction2017/movesense-mobile-lib/android/samples/sampleapp/src/main/AndroidManifest.xml:20:9-35
	android:theme
		ADDED from /home/ehofmann/dev/junction2017/movesense-mobile-lib/android/samples/sampleapp/src/main/AndroidManifest.xml:24:9-40
	android:name
		ADDED from /home/ehofmann/dev/junction2017/movesense-mobile-lib/android/samples/sampleapp/src/main/AndroidManifest.xml:19:9-34
activity#com.movesense.mds.sampleapp.MainActivity
ADDED from /home/ehofmann/dev/junction2017/movesense-mobile-lib/android/samples/sampleapp/src/main/AndroidManifest.xml:25:9-27:51
	android:screenOrientation
		ADDED from /home/ehofmann/dev/junction2017/movesense-mobile-lib/android/samples/sampleapp/src/main/AndroidManifest.xml:27:13-49
	android:name
		ADDED from /home/ehofmann/dev/junction2017/movesense-mobile-lib/android/samples/sampleapp/src/main/AndroidManifest.xml:26:13-41
activity#com.movesense.mds.sampleapp.example_app_using_mds_api.SelectTestActivity
ADDED from /home/ehofmann/dev/junction2017/movesense-mobile-lib/android/samples/sampleapp/src/main/AndroidManifest.xml:28:9-30:51
	android:screenOrientation
		ADDED from /home/ehofmann/dev/junction2017/movesense-mobile-lib/android/samples/sampleapp/src/main/AndroidManifest.xml:30:13-49
	android:name
		ADDED from /home/ehofmann/dev/junction2017/movesense-mobile-lib/android/samples/sampleapp/src/main/AndroidManifest.xml:29:13-73
activity#com.movesense.mds.sampleapp.example_app_using_mds_api.tests.LedTestActivity
ADDED from /home/ehofmann/dev/junction2017/movesense-mobile-lib/android/samples/sampleapp/src/main/AndroidManifest.xml:31:9-33:51
	android:screenOrientation
		ADDED from /home/ehofmann/dev/junction2017/movesense-mobile-lib/android/samples/sampleapp/src/main/AndroidManifest.xml:33:13-49
	android:name
		ADDED from /home/ehofmann/dev/junction2017/movesense-mobile-lib/android/samples/sampleapp/src/main/AndroidManifest.xml:32:13-76
activity#com.movesense.mds.sampleapp.example_app_using_mds_api.tests.LinearAccelerationTestActivity
ADDED from /home/ehofmann/dev/junction2017/movesense-mobile-lib/android/samples/sampleapp/src/main/AndroidManifest.xml:34:9-36:51
	android:screenOrientation
		ADDED from /home/ehofmann/dev/junction2017/movesense-mobile-lib/android/samples/sampleapp/src/main/AndroidManifest.xml:36:13-49
	android:name
		ADDED from /home/ehofmann/dev/junction2017/movesense-mobile-lib/android/samples/sampleapp/src/main/AndroidManifest.xml:35:13-91
activity#com.movesense.mds.sampleapp.example_app_using_mds_api.tests.HeartRateTestActivity
ADDED from /home/ehofmann/dev/junction2017/movesense-mobile-lib/android/samples/sampleapp/src/main/AndroidManifest.xml:37:9-39:51
	android:screenOrientation
		ADDED from /home/ehofmann/dev/junction2017/movesense-mobile-lib/android/samples/sampleapp/src/main/AndroidManifest.xml:39:13-49
	android:name
		ADDED from /home/ehofmann/dev/junction2017/movesense-mobile-lib/android/samples/sampleapp/src/main/AndroidManifest.xml:38:13-82
activity#com.movesense.mds.sampleapp.example_app_using_mds_api.tests.TemperatureTestActivity
ADDED from /home/ehofmann/dev/junction2017/movesense-mobile-lib/android/samples/sampleapp/src/main/AndroidManifest.xml:40:9-42:51
	android:screenOrientation
		ADDED from /home/ehofmann/dev/junction2017/movesense-mobile-lib/android/samples/sampleapp/src/main/AndroidManifest.xml:42:13-49
	android:name
		ADDED from /home/ehofmann/dev/junction2017/movesense-mobile-lib/android/samples/sampleapp/src/main/AndroidManifest.xml:41:13-84
activity#com.movesense.mds.sampleapp.example_app_using_mds_api.tests.MagneticFieldTestActivity
ADDED from /home/ehofmann/dev/junction2017/movesense-mobile-lib/android/samples/sampleapp/src/main/AndroidManifest.xml:43:9-45:51
	android:screenOrientation
		ADDED from /home/ehofmann/dev/junction2017/movesense-mobile-lib/android/samples/sampleapp/src/main/AndroidManifest.xml:45:13-49
	android:name
		ADDED from /home/ehofmann/dev/junction2017/movesense-mobile-lib/android/samples/sampleapp/src/main/AndroidManifest.xml:44:13-86
activity#com.movesense.mds.sampleapp.example_app_using_mds_api.tests.AngularVelocityActivity
ADDED from /home/ehofmann/dev/junction2017/movesense-mobile-lib/android/samples/sampleapp/src/main/AndroidManifest.xml:46:9-48:51
	android:screenOrientation
		ADDED from /home/ehofmann/dev/junction2017/movesense-mobile-lib/android/samples/sampleapp/src/main/AndroidManifest.xml:48:13-49
	android:name
		ADDED from /home/ehofmann/dev/junction2017/movesense-mobile-lib/android/samples/sampleapp/src/main/AndroidManifest.xml:47:13-84
activity#com.movesense.mds.sampleapp.example_app_using_mds_api.tests.MultiSubscribeActivity
ADDED from /home/ehofmann/dev/junction2017/movesense-mobile-lib/android/samples/sampleapp/src/main/AndroidManifest.xml:49:9-51:51
	android:screenOrientation
		ADDED from /home/ehofmann/dev/junction2017/movesense-mobile-lib/android/samples/sampleapp/src/main/AndroidManifest.xml:51:13-49
	android:name
		ADDED from /home/ehofmann/dev/junction2017/movesense-mobile-lib/android/samples/sampleapp/src/main/AndroidManifest.xml:50:13-83
activity#com.movesense.mds.sampleapp.example_app_using_mds_api.SendLogsToGoogleDriveActivity
ADDED from /home/ehofmann/dev/junction2017/movesense-mobile-lib/android/samples/sampleapp/src/main/AndroidManifest.xml:52:9-54:51
	android:screenOrientation
		ADDED from /home/ehofmann/dev/junction2017/movesense-mobile-lib/android/samples/sampleapp/src/main/AndroidManifest.xml:54:13-49
	android:name
		ADDED from /home/ehofmann/dev/junction2017/movesense-mobile-lib/android/samples/sampleapp/src/main/AndroidManifest.xml:53:13-84
activity#com.movesense.mds.sampleapp.example_app_using_mds_api.dfu.DfuActivity
ADDED from /home/ehofmann/dev/junction2017/movesense-mobile-lib/android/samples/sampleapp/src/main/AndroidManifest.xml:66:9-68:51
	android:screenOrientation
		ADDED from /home/ehofmann/dev/junction2017/movesense-mobile-lib/android/samples/sampleapp/src/main/AndroidManifest.xml:68:13-49
	android:name
		ADDED from /home/ehofmann/dev/junction2017/movesense-mobile-lib/android/samples/sampleapp/src/main/AndroidManifest.xml:67:13-70
service#com.movesense.mds.sampleapp.example_app_using_mds_api.dfu.DfuService
ADDED from /home/ehofmann/dev/junction2017/movesense-mobile-lib/android/samples/sampleapp/src/main/AndroidManifest.xml:70:9-73:38
	android:enabled
		ADDED from /home/ehofmann/dev/junction2017/movesense-mobile-lib/android/samples/sampleapp/src/main/AndroidManifest.xml:72:13-35
	android:exported
		ADDED from /home/ehofmann/dev/junction2017/movesense-mobile-lib/android/samples/sampleapp/src/main/AndroidManifest.xml:73:13-36
	android:name
		ADDED from /home/ehofmann/dev/junction2017/movesense-mobile-lib/android/samples/sampleapp/src/main/AndroidManifest.xml:71:13-69
receiver#com.movesense.mds.sampleapp.example_app_using_mds_api.adb.AdbBridge
ADDED from /home/ehofmann/dev/junction2017/movesense-mobile-lib/android/samples/sampleapp/src/main/AndroidManifest.xml:75:9-82:20
	android:enabled
		ADDED from /home/ehofmann/dev/junction2017/movesense-mobile-lib/android/samples/sampleapp/src/main/AndroidManifest.xml:77:13-35
	android:exported
		ADDED from /home/ehofmann/dev/junction2017/movesense-mobile-lib/android/samples/sampleapp/src/main/AndroidManifest.xml:78:13-36
	android:name
		ADDED from /home/ehofmann/dev/junction2017/movesense-mobile-lib/android/samples/sampleapp/src/main/AndroidManifest.xml:76:13-68
intent-filter#android.intent.action.MOVESENSE
ADDED from /home/ehofmann/dev/junction2017/movesense-mobile-lib/android/samples/sampleapp/src/main/AndroidManifest.xml:79:13-81:29
action#android.intent.action.MOVESENSE
ADDED from /home/ehofmann/dev/junction2017/movesense-mobile-lib/android/samples/sampleapp/src/main/AndroidManifest.xml:80:17-73
	android:name
		ADDED from /home/ehofmann/dev/junction2017/movesense-mobile-lib/android/samples/sampleapp/src/main/AndroidManifest.xml:80:25-71
activity#com.movesense.mds.sampleapp.example_app_using_mds_api.splash.SplashActivity
ADDED from /home/ehofmann/dev/junction2017/movesense-mobile-lib/android/samples/sampleapp/src/main/AndroidManifest.xml:84:9-95:20
	android:screenOrientation
		ADDED from /home/ehofmann/dev/junction2017/movesense-mobile-lib/android/samples/sampleapp/src/main/AndroidManifest.xml:86:13-49
	android:theme
		ADDED from /home/ehofmann/dev/junction2017/movesense-mobile-lib/android/samples/sampleapp/src/main/AndroidManifest.xml:87:13-47
	android:name
		ADDED from /home/ehofmann/dev/junction2017/movesense-mobile-lib/android/samples/sampleapp/src/main/AndroidManifest.xml:85:13-76
activity#com.movesense.mds.sampleapp.example_app_using_mds_api.mainView.MainViewActivity
ADDED from /home/ehofmann/dev/junction2017/movesense-mobile-lib/android/samples/sampleapp/src/main/AndroidManifest.xml:96:9-105:20
	android:screenOrientation
		ADDED from /home/ehofmann/dev/junction2017/movesense-mobile-lib/android/samples/sampleapp/src/main/AndroidManifest.xml:98:13-49
	android:name
		ADDED from /home/ehofmann/dev/junction2017/movesense-mobile-lib/android/samples/sampleapp/src/main/AndroidManifest.xml:97:13-80
intent-filter#android.intent.action.MAIN+android.intent.action.MY_ACTION+android.intent.category.LAUNCHER
ADDED from /home/ehofmann/dev/junction2017/movesense-mobile-lib/android/samples/sampleapp/src/main/AndroidManifest.xml:99:13-104:29
action#android.intent.action.MAIN
ADDED from /home/ehofmann/dev/junction2017/movesense-mobile-lib/android/samples/sampleapp/src/main/AndroidManifest.xml:100:17-68
	android:name
		ADDED from /home/ehofmann/dev/junction2017/movesense-mobile-lib/android/samples/sampleapp/src/main/AndroidManifest.xml:100:25-66
action#android.intent.action.MY_ACTION
ADDED from /home/ehofmann/dev/junction2017/movesense-mobile-lib/android/samples/sampleapp/src/main/AndroidManifest.xml:101:17-73
	android:name
		ADDED from /home/ehofmann/dev/junction2017/movesense-mobile-lib/android/samples/sampleapp/src/main/AndroidManifest.xml:101:25-71
category#android.intent.category.LAUNCHER
ADDED from /home/ehofmann/dev/junction2017/movesense-mobile-lib/android/samples/sampleapp/src/main/AndroidManifest.xml:103:17-76
	android:name
		ADDED from /home/ehofmann/dev/junction2017/movesense-mobile-lib/android/samples/sampleapp/src/main/AndroidManifest.xml:103:27-74
activity#com.movesense.mds.sampleapp.example_app_using_mds_api.movesense.MovesenseActivity
ADDED from /home/ehofmann/dev/junction2017/movesense-mobile-lib/android/samples/sampleapp/src/main/AndroidManifest.xml:106:9-108:51
	android:screenOrientation
		ADDED from /home/ehofmann/dev/junction2017/movesense-mobile-lib/android/samples/sampleapp/src/main/AndroidManifest.xml:108:13-49
	android:name
		ADDED from /home/ehofmann/dev/junction2017/movesense-mobile-lib/android/samples/sampleapp/src/main/AndroidManifest.xml:107:13-82
activity#com.movesense.mds.sampleapp.example_app_using_mds_api.multi_connection.connection.MultiConnectionActivity
ADDED from /home/ehofmann/dev/junction2017/movesense-mobile-lib/android/samples/sampleapp/src/main/AndroidManifest.xml:109:9-111:51
	android:screenOrientation
		ADDED from /home/ehofmann/dev/junction2017/movesense-mobile-lib/android/samples/sampleapp/src/main/AndroidManifest.xml:111:13-49
	android:name
		ADDED from /home/ehofmann/dev/junction2017/movesense-mobile-lib/android/samples/sampleapp/src/main/AndroidManifest.xml:110:13-106
activity#com.movesense.mds.sampleapp.example_app_using_mds_api.saved_data.SavedDataActivity
ADDED from /home/ehofmann/dev/junction2017/movesense-mobile-lib/android/samples/sampleapp/src/main/AndroidManifest.xml:112:9-114:51
	android:screenOrientation
		ADDED from /home/ehofmann/dev/junction2017/movesense-mobile-lib/android/samples/sampleapp/src/main/AndroidManifest.xml:114:13-49
	android:name
		ADDED from /home/ehofmann/dev/junction2017/movesense-mobile-lib/android/samples/sampleapp/src/main/AndroidManifest.xml:113:13-83
activity#com.movesense.mds.sampleapp.example_app_using_mds_api.about.AboutActivity
ADDED from /home/ehofmann/dev/junction2017/movesense-mobile-lib/android/samples/sampleapp/src/main/AndroidManifest.xml:115:9-117:51
	android:screenOrientation
		ADDED from /home/ehofmann/dev/junction2017/movesense-mobile-lib/android/samples/sampleapp/src/main/AndroidManifest.xml:117:13-49
	android:name
		ADDED from /home/ehofmann/dev/junction2017/movesense-mobile-lib/android/samples/sampleapp/src/main/AndroidManifest.xml:116:13-74
activity#com.movesense.mds.sampleapp.example_app_using_mds_api.sensors.sensors_list.SensorListActivity
ADDED from /home/ehofmann/dev/junction2017/movesense-mobile-lib/android/samples/sampleapp/src/main/AndroidManifest.xml:118:9-121:20
	android:screenOrientation
		ADDED from /home/ehofmann/dev/junction2017/movesense-mobile-lib/android/samples/sampleapp/src/main/AndroidManifest.xml:120:13-49
	android:name
		ADDED from /home/ehofmann/dev/junction2017/movesense-mobile-lib/android/samples/sampleapp/src/main/AndroidManifest.xml:119:13-94
activity#com.movesense.mds.sampleapp.example_app_using_mds_api.dfu.DfuActivity2
ADDED from /home/ehofmann/dev/junction2017/movesense-mobile-lib/android/samples/sampleapp/src/main/AndroidManifest.xml:122:9-125:20
	android:screenOrientation
		ADDED from /home/ehofmann/dev/junction2017/movesense-mobile-lib/android/samples/sampleapp/src/main/AndroidManifest.xml:124:13-49
	android:name
		ADDED from /home/ehofmann/dev/junction2017/movesense-mobile-lib/android/samples/sampleapp/src/main/AndroidManifest.xml:123:13-71
activity#com.movesense.mds.sampleapp.example_app_using_mds_api.multi_connection.sensor_usage.MultiSensorUsageActivity
ADDED from /home/ehofmann/dev/junction2017/movesense-mobile-lib/android/samples/sampleapp/src/main/AndroidManifest.xml:126:9-129:20
	android:screenOrientation
		ADDED from /home/ehofmann/dev/junction2017/movesense-mobile-lib/android/samples/sampleapp/src/main/AndroidManifest.xml:128:13-49
	android:name
		ADDED from /home/ehofmann/dev/junction2017/movesense-mobile-lib/android/samples/sampleapp/src/main/AndroidManifest.xml:127:13-109
activity#com.movesense.mds.sampleapp.example_app_using_mds_api.tests.EcgActivity
ADDED from /home/ehofmann/dev/junction2017/movesense-mobile-lib/android/samples/sampleapp/src/main/AndroidManifest.xml:131:9-134:20
	android:screenOrientation
		ADDED from /home/ehofmann/dev/junction2017/movesense-mobile-lib/android/samples/sampleapp/src/main/AndroidManifest.xml:133:13-49
	android:name
		ADDED from /home/ehofmann/dev/junction2017/movesense-mobile-lib/android/samples/sampleapp/src/main/AndroidManifest.xml:132:13-72
activity#com.movesense.mds.sampleapp.example_app_using_mds_api.tests.BatteryActivity
ADDED from /home/ehofmann/dev/junction2017/movesense-mobile-lib/android/samples/sampleapp/src/main/AndroidManifest.xml:135:9-138:20
	android:screenOrientation
		ADDED from /home/ehofmann/dev/junction2017/movesense-mobile-lib/android/samples/sampleapp/src/main/AndroidManifest.xml:137:13-49
	android:name
		ADDED from /home/ehofmann/dev/junction2017/movesense-mobile-lib/android/samples/sampleapp/src/main/AndroidManifest.xml:136:13-76
uses-sdk
INJECTED from /home/ehofmann/dev/junction2017/movesense-mobile-lib/android/samples/sampleapp/src/main/AndroidManifest.xml reason: use-sdk injection requested
INJECTED from /home/ehofmann/dev/junction2017/movesense-mobile-lib/android/samples/sampleapp/src/main/AndroidManifest.xml
INJECTED from /home/ehofmann/dev/junction2017/movesense-mobile-lib/android/samples/sampleapp/src/main/AndroidManifest.xml
MERGED from [pub.devrel:easypermissions:0.2.1] /home/ehofmann/.gradle/caches/transforms-1/files-1.1/easypermissions-0.2.1.aar/c3618cb397e00d74750dcdeda867fde2/AndroidManifest.xml:8:5-10:41
MERGED from [pub.devrel:easypermissions:0.2.1] /home/ehofmann/.gradle/caches/transforms-1/files-1.1/easypermissions-0.2.1.aar/c3618cb397e00d74750dcdeda867fde2/AndroidManifest.xml:8:5-10:41
MERGED from [com.android.support:appcompat-v7:25.4.0] /home/ehofmann/.gradle/caches/transforms-1/files-1.1/appcompat-v7-25.4.0.aar/021bd879767a88374281eec5ba3491c1/AndroidManifest.xml:21:5-23:78
MERGED from [com.android.support:appcompat-v7:25.4.0] /home/ehofmann/.gradle/caches/transforms-1/files-1.1/appcompat-v7-25.4.0.aar/021bd879767a88374281eec5ba3491c1/AndroidManifest.xml:21:5-23:78
MERGED from [com.android.support:recyclerview-v7:25.4.0] /home/ehofmann/.gradle/caches/transforms-1/files-1.1/recyclerview-v7-25.4.0.aar/49f95e6664274d67795c5aea23cdad80/AndroidManifest.xml:20:5-43
MERGED from [com.android.support:recyclerview-v7:25.4.0] /home/ehofmann/.gradle/caches/transforms-1/files-1.1/recyclerview-v7-25.4.0.aar/49f95e6664274d67795c5aea23cdad80/AndroidManifest.xml:20:5-43
MERGED from [com.polidea.rxandroidble:rxandroidble:1.4.1] /home/ehofmann/.gradle/caches/transforms-1/files-1.1/rxandroidble-1.4.1.aar/cc93d24336f8d0cf9f442535fcd307fc/AndroidManifest.xml:7:5-9:41
MERGED from [com.polidea.rxandroidble:rxandroidble:1.4.1] /home/ehofmann/.gradle/caches/transforms-1/files-1.1/rxandroidble-1.4.1.aar/cc93d24336f8d0cf9f442535fcd307fc/AndroidManifest.xml:7:5-9:41
MERGED from [io.reactivex:rxandroid:1.2.1] /home/ehofmann/.gradle/caches/transforms-1/files-1.1/rxandroid-1.2.1.aar/d96265de51269bb21107f59109dc1dbb/AndroidManifest.xml:19:5-43
MERGED from [io.reactivex:rxandroid:1.2.1] /home/ehofmann/.gradle/caches/transforms-1/files-1.1/rxandroid-1.2.1.aar/d96265de51269bb21107f59109dc1dbb/AndroidManifest.xml:19:5-43
MERGED from [no.nordicsemi.android:dfu:1.4.2] /home/ehofmann/.gradle/caches/transforms-1/files-1.1/dfu-1.4.2.aar/5fe75c3f7ea08927e948bc969fc342ec/AndroidManifest.xml:7:5-9:41
MERGED from [no.nordicsemi.android:dfu:1.4.2] /home/ehofmann/.gradle/caches/transforms-1/files-1.1/dfu-1.4.2.aar/5fe75c3f7ea08927e948bc969fc342ec/AndroidManifest.xml:7:5-9:41
MERGED from [com.android.support.test.espresso.idling:idling-concurrent:3.0.0] /home/ehofmann/.gradle/caches/transforms-1/files-1.1/idling-concurrent-3.0.0.aar/4898a31ef80eec470872533eec85851a/AndroidManifest.xml:19:3-70
MERGED from [com.android.support.test.espresso.idling:idling-concurrent:3.0.0] /home/ehofmann/.gradle/caches/transforms-1/files-1.1/idling-concurrent-3.0.0.aar/4898a31ef80eec470872533eec85851a/AndroidManifest.xml:19:3-70
MERGED from [:mdslib:1.6.0(1)-release] /home/ehofmann/.gradle/caches/transforms-1/files-1.1/mdslib-1.6.0(1)-release.aar/a4f6098d0e4572f74e7635c69bf108df/AndroidManifest.xml:8:5-10:41
MERGED from [:mdslib:1.6.0(1)-release] /home/ehofmann/.gradle/caches/transforms-1/files-1.1/mdslib-1.6.0(1)-release.aar/a4f6098d0e4572f74e7635c69bf108df/AndroidManifest.xml:8:5-10:41
MERGED from [com.jakewharton:butterknife:8.5.1] /home/ehofmann/.gradle/caches/transforms-1/files-1.1/butterknife-8.5.1.aar/ade1b70edf68a9cf4dcbad766a8cc782/AndroidManifest.xml:5:5-43
MERGED from [com.jakewharton:butterknife:8.5.1] /home/ehofmann/.gradle/caches/transforms-1/files-1.1/butterknife-8.5.1.aar/ade1b70edf68a9cf4dcbad766a8cc782/AndroidManifest.xml:5:5-43
MERGED from [com.jjoe64:graphview:4.2.1] /home/ehofmann/.gradle/caches/transforms-1/files-1.1/graphview-4.2.1.aar/9a6718eae730913f854b5a6ff7b6605e/AndroidManifest.xml:7:5-9:41
MERGED from [com.jjoe64:graphview:4.2.1] /home/ehofmann/.gradle/caches/transforms-1/files-1.1/graphview-4.2.1.aar/9a6718eae730913f854b5a6ff7b6605e/AndroidManifest.xml:7:5-9:41
MERGED from [com.google.android.gms:play-services-drive:11.0.1] /home/ehofmann/.gradle/caches/transforms-1/files-1.1/play-services-drive-11.0.1.aar/f45dbf2294add599ed5ce260376d006b/AndroidManifest.xml:17:5-43
MERGED from [com.google.android.gms:play-services-drive:11.0.1] /home/ehofmann/.gradle/caches/transforms-1/files-1.1/play-services-drive-11.0.1.aar/f45dbf2294add599ed5ce260376d006b/AndroidManifest.xml:17:5-43
MERGED from [com.google.android.gms:play-services-auth:11.0.1] /home/ehofmann/.gradle/caches/transforms-1/files-1.1/play-services-auth-11.0.1.aar/0b361dd53320fe40c7b1a4ee7ffc7a6b/AndroidManifest.xml:17:5-43
MERGED from [com.google.android.gms:play-services-auth:11.0.1] /home/ehofmann/.gradle/caches/transforms-1/files-1.1/play-services-auth-11.0.1.aar/0b361dd53320fe40c7b1a4ee7ffc7a6b/AndroidManifest.xml:17:5-43
MERGED from [com.android.support.constraint:constraint-layout:1.0.2] /home/ehofmann/.gradle/caches/transforms-1/files-1.1/constraint-layout-1.0.2.aar/1f014d207441fb45b23f821f8ef04015/AndroidManifest.xml:5:5-7:41
MERGED from [com.android.support.constraint:constraint-layout:1.0.2] /home/ehofmann/.gradle/caches/transforms-1/files-1.1/constraint-layout-1.0.2.aar/1f014d207441fb45b23f821f8ef04015/AndroidManifest.xml:5:5-7:41
MERGED from [com.hanks:htextview-evaporate:0.1.1] /home/ehofmann/.gradle/caches/transforms-1/files-1.1/htextview-evaporate-0.1.1.aar/af0502f0cb7cad2d8150e741135fcbd3/AndroidManifest.xml:7:5-9:41
MERGED from [com.hanks:htextview-evaporate:0.1.1] /home/ehofmann/.gradle/caches/transforms-1/files-1.1/htextview-evaporate-0.1.1.aar/af0502f0cb7cad2d8150e741135fcbd3/AndroidManifest.xml:7:5-9:41
MERGED from [com.google.android.gms:play-services-auth-base:11.0.1] /home/ehofmann/.gradle/caches/transforms-1/files-1.1/play-services-auth-base-11.0.1.aar/c103d0edb64b04f12a76e405d2e05f39/AndroidManifest.xml:4:5-43
MERGED from [com.google.android.gms:play-services-auth-base:11.0.1] /home/ehofmann/.gradle/caches/transforms-1/files-1.1/play-services-auth-base-11.0.1.aar/c103d0edb64b04f12a76e405d2e05f39/AndroidManifest.xml:4:5-43
MERGED from [com.google.android.gms:play-services-base:11.0.1] /home/ehofmann/.gradle/caches/transforms-1/files-1.1/play-services-base-11.0.1.aar/102cb29b4c618cb9189f125a06801a64/AndroidManifest.xml:17:5-43
MERGED from [com.google.android.gms:play-services-base:11.0.1] /home/ehofmann/.gradle/caches/transforms-1/files-1.1/play-services-base-11.0.1.aar/102cb29b4c618cb9189f125a06801a64/AndroidManifest.xml:17:5-43
MERGED from [com.google.android.gms:play-services-tasks:11.0.1] /home/ehofmann/.gradle/caches/transforms-1/files-1.1/play-services-tasks-11.0.1.aar/9b62d4d03efb80283903f5d43b1f0317/AndroidManifest.xml:3:5-43
MERGED from [com.google.android.gms:play-services-tasks:11.0.1] /home/ehofmann/.gradle/caches/transforms-1/files-1.1/play-services-tasks-11.0.1.aar/9b62d4d03efb80283903f5d43b1f0317/AndroidManifest.xml:3:5-43
MERGED from [com.google.android.gms:play-services-basement:11.0.1] /home/ehofmann/.gradle/caches/transforms-1/files-1.1/play-services-basement-11.0.1.aar/0cfa67db2c278389694597fa4900987a/AndroidManifest.xml:17:5-43
MERGED from [com.google.android.gms:play-services-basement:11.0.1] /home/ehofmann/.gradle/caches/transforms-1/files-1.1/play-services-basement-11.0.1.aar/0cfa67db2c278389694597fa4900987a/AndroidManifest.xml:17:5-43
MERGED from [com.android.support:support-v4:25.4.0] /home/ehofmann/.gradle/caches/transforms-1/files-1.1/support-v4-25.4.0.aar/9949e1134677a6bff483e976c7f11347/AndroidManifest.xml:21:5-23:54
MERGED from [com.android.support:support-v4:25.4.0] /home/ehofmann/.gradle/caches/transforms-1/files-1.1/support-v4-25.4.0.aar/9949e1134677a6bff483e976c7f11347/AndroidManifest.xml:21:5-23:54
MERGED from [com.android.support:support-fragment:25.4.0] /home/ehofmann/.gradle/caches/transforms-1/files-1.1/support-fragment-25.4.0.aar/db1a9de46a394ffcc5dc569ab48d5546/AndroidManifest.xml:21:5-23:60
MERGED from [com.android.support:support-fragment:25.4.0] /home/ehofmann/.gradle/caches/transforms-1/files-1.1/support-fragment-25.4.0.aar/db1a9de46a394ffcc5dc569ab48d5546/AndroidManifest.xml:21:5-23:60
MERGED from [com.android.support:animated-vector-drawable:25.4.0] /home/ehofmann/.gradle/caches/transforms-1/files-1.1/animated-vector-drawable-25.4.0.aar/326a88862c0dc645badaf9d0342c579e/AndroidManifest.xml:20:5-44
MERGED from [com.android.support:animated-vector-drawable:25.4.0] /home/ehofmann/.gradle/caches/transforms-1/files-1.1/animated-vector-drawable-25.4.0.aar/326a88862c0dc645badaf9d0342c579e/AndroidManifest.xml:20:5-44
MERGED from [com.android.support:support-core-ui:25.4.0] /home/ehofmann/.gradle/caches/transforms-1/files-1.1/support-core-ui-25.4.0.aar/a439e2c45415755cf73841eaf2bbcc9f/AndroidManifest.xml:21:5-23:58
MERGED from [com.android.support:support-core-ui:25.4.0] /home/ehofmann/.gradle/caches/transforms-1/files-1.1/support-core-ui-25.4.0.aar/a439e2c45415755cf73841eaf2bbcc9f/AndroidManifest.xml:21:5-23:58
MERGED from [com.android.support:support-media-compat:25.4.0] /home/ehofmann/.gradle/caches/transforms-1/files-1.1/support-media-compat-25.4.0.aar/1eec910b5cb7c7283ee76dd90cd9a56d/AndroidManifest.xml:21:5-23:63
MERGED from [com.android.support:support-media-compat:25.4.0] /home/ehofmann/.gradle/caches/transforms-1/files-1.1/support-media-compat-25.4.0.aar/1eec910b5cb7c7283ee76dd90cd9a56d/AndroidManifest.xml:21:5-23:63
MERGED from [com.android.support:support-core-utils:25.4.0] /home/ehofmann/.gradle/caches/transforms-1/files-1.1/support-core-utils-25.4.0.aar/8bbd005ef37a997f7ed05fa97f394833/AndroidManifest.xml:21:5-23:61
MERGED from [com.android.support:support-core-utils:25.4.0] /home/ehofmann/.gradle/caches/transforms-1/files-1.1/support-core-utils-25.4.0.aar/8bbd005ef37a997f7ed05fa97f394833/AndroidManifest.xml:21:5-23:61
MERGED from [com.android.support:support-vector-drawable:25.4.0] /home/ehofmann/.gradle/caches/transforms-1/files-1.1/support-vector-drawable-25.4.0.aar/25207c4cdea332022e5a84e99964fdb3/AndroidManifest.xml:20:5-43
MERGED from [com.android.support:support-vector-drawable:25.4.0] /home/ehofmann/.gradle/caches/transforms-1/files-1.1/support-vector-drawable-25.4.0.aar/25207c4cdea332022e5a84e99964fdb3/AndroidManifest.xml:20:5-43
MERGED from [com.android.support:support-compat:25.4.0] /home/ehofmann/.gradle/caches/transforms-1/files-1.1/support-compat-25.4.0.aar/87cfc0bcfe55c7cf242f4299ff3fa257/AndroidManifest.xml:21:5-23:58
MERGED from [com.android.support:support-compat:25.4.0] /home/ehofmann/.gradle/caches/transforms-1/files-1.1/support-compat-25.4.0.aar/87cfc0bcfe55c7cf242f4299ff3fa257/AndroidManifest.xml:21:5-23:58
MERGED from [com.artemzin.rxjava:proguard-rules:1.3.1.0] /home/ehofmann/.gradle/caches/transforms-1/files-1.1/proguard-rules-1.3.1.0.aar/c373a2fe3b9e4d5d61833cc6ec76026e/AndroidManifest.xml:8:5-43
MERGED from [com.artemzin.rxjava:proguard-rules:1.3.1.0] /home/ehofmann/.gradle/caches/transforms-1/files-1.1/proguard-rules-1.3.1.0.aar/c373a2fe3b9e4d5d61833cc6ec76026e/AndroidManifest.xml:8:5-43
MERGED from [com.android.support.test.espresso:espresso-idling-resource:3.0.0] /home/ehofmann/.gradle/caches/transforms-1/files-1.1/espresso-idling-resource-3.0.0.aar/e2d6e05cfed8e8301097ecb665890a28/AndroidManifest.xml:19:3-70
MERGED from [com.android.support.test.espresso:espresso-idling-resource:3.0.0] /home/ehofmann/.gradle/caches/transforms-1/files-1.1/espresso-idling-resource-3.0.0.aar/e2d6e05cfed8e8301097ecb665890a28/AndroidManifest.xml:19:3-70
MERGED from [com.hanks:htextview-base:0.1.1] /home/ehofmann/.gradle/caches/transforms-1/files-1.1/htextview-base-0.1.1.aar/e14479a79b512341940d9820e90590e4/AndroidManifest.xml:7:5-9:41
MERGED from [com.hanks:htextview-base:0.1.1] /home/ehofmann/.gradle/caches/transforms-1/files-1.1/htextview-base-0.1.1.aar/e14479a79b512341940d9820e90590e4/AndroidManifest.xml:7:5-9:41
INJECTED from /home/ehofmann/dev/junction2017/movesense-mobile-lib/android/samples/sampleapp/src/main/AndroidManifest.xml
INJECTED from /home/ehofmann/dev/junction2017/movesense-mobile-lib/android/samples/sampleapp/src/main/AndroidManifest.xml
	tools:overrideLibrary
		ADDED from [com.android.support:appcompat-v7:25.4.0] /home/ehofmann/.gradle/caches/transforms-1/files-1.1/appcompat-v7-25.4.0.aar/021bd879767a88374281eec5ba3491c1/AndroidManifest.xml:23:9-75
	android:targetSdkVersion
		INJECTED from /home/ehofmann/dev/junction2017/movesense-mobile-lib/android/samples/sampleapp/src/main/AndroidManifest.xml
		ADDED from /home/ehofmann/dev/junction2017/movesense-mobile-lib/android/samples/sampleapp/src/main/AndroidManifest.xml
		INJECTED from /home/ehofmann/dev/junction2017/movesense-mobile-lib/android/samples/sampleapp/src/main/AndroidManifest.xml
	android:minSdkVersion
		INJECTED from /home/ehofmann/dev/junction2017/movesense-mobile-lib/android/samples/sampleapp/src/main/AndroidManifest.xml
		ADDED from /home/ehofmann/dev/junction2017/movesense-mobile-lib/android/samples/sampleapp/src/main/AndroidManifest.xml
		INJECTED from /home/ehofmann/dev/junction2017/movesense-mobile-lib/android/samples/sampleapp/src/main/AndroidManifest.xml
meta-data#android.support.FILE_PROVIDER_PATHS
ADDED from /home/ehofmann/dev/junction2017/movesense-mobile-lib/android/samples/sampleapp/src/main/AndroidManifest.xml:61:13-63:62
	android:resource
		ADDED from /home/ehofmann/dev/junction2017/movesense-mobile-lib/android/samples/sampleapp/src/main/AndroidManifest.xml:63:17-60
	android:name
		ADDED from /home/ehofmann/dev/junction2017/movesense-mobile-lib/android/samples/sampleapp/src/main/AndroidManifest.xml:62:17-67
meta-data#android.support.VERSION
ADDED from [com.android.support:appcompat-v7:25.4.0] /home/ehofmann/.gradle/caches/transforms-1/files-1.1/appcompat-v7-25.4.0.aar/021bd879767a88374281eec5ba3491c1/AndroidManifest.xml:26:9-28:38
MERGED from [com.android.support:recyclerview-v7:25.4.0] /home/ehofmann/.gradle/caches/transforms-1/files-1.1/recyclerview-v7-25.4.0.aar/49f95e6664274d67795c5aea23cdad80/AndroidManifest.xml:23:9-25:38
MERGED from [com.android.support:recyclerview-v7:25.4.0] /home/ehofmann/.gradle/caches/transforms-1/files-1.1/recyclerview-v7-25.4.0.aar/49f95e6664274d67795c5aea23cdad80/AndroidManifest.xml:23:9-25:38
MERGED from [com.android.support:support-v4:25.4.0] /home/ehofmann/.gradle/caches/transforms-1/files-1.1/support-v4-25.4.0.aar/9949e1134677a6bff483e976c7f11347/AndroidManifest.xml:26:9-28:38
MERGED from [com.android.support:support-v4:25.4.0] /home/ehofmann/.gradle/caches/transforms-1/files-1.1/support-v4-25.4.0.aar/9949e1134677a6bff483e976c7f11347/AndroidManifest.xml:26:9-28:38
MERGED from [com.android.support:support-fragment:25.4.0] /home/ehofmann/.gradle/caches/transforms-1/files-1.1/support-fragment-25.4.0.aar/db1a9de46a394ffcc5dc569ab48d5546/AndroidManifest.xml:26:9-28:38
MERGED from [com.android.support:support-fragment:25.4.0] /home/ehofmann/.gradle/caches/transforms-1/files-1.1/support-fragment-25.4.0.aar/db1a9de46a394ffcc5dc569ab48d5546/AndroidManifest.xml:26:9-28:38
MERGED from [com.android.support:animated-vector-drawable:25.4.0] /home/ehofmann/.gradle/caches/transforms-1/files-1.1/animated-vector-drawable-25.4.0.aar/326a88862c0dc645badaf9d0342c579e/AndroidManifest.xml:23:9-25:38
MERGED from [com.android.support:animated-vector-drawable:25.4.0] /home/ehofmann/.gradle/caches/transforms-1/files-1.1/animated-vector-drawable-25.4.0.aar/326a88862c0dc645badaf9d0342c579e/AndroidManifest.xml:23:9-25:38
MERGED from [com.android.support:support-core-ui:25.4.0] /home/ehofmann/.gradle/caches/transforms-1/files-1.1/support-core-ui-25.4.0.aar/a439e2c45415755cf73841eaf2bbcc9f/AndroidManifest.xml:26:9-28:38
MERGED from [com.android.support:support-core-ui:25.4.0] /home/ehofmann/.gradle/caches/transforms-1/files-1.1/support-core-ui-25.4.0.aar/a439e2c45415755cf73841eaf2bbcc9f/AndroidManifest.xml:26:9-28:38
MERGED from [com.android.support:support-media-compat:25.4.0] /home/ehofmann/.gradle/caches/transforms-1/files-1.1/support-media-compat-25.4.0.aar/1eec910b5cb7c7283ee76dd90cd9a56d/AndroidManifest.xml:26:9-28:38
MERGED from [com.android.support:support-media-compat:25.4.0] /home/ehofmann/.gradle/caches/transforms-1/files-1.1/support-media-compat-25.4.0.aar/1eec910b5cb7c7283ee76dd90cd9a56d/AndroidManifest.xml:26:9-28:38
MERGED from [com.android.support:support-core-utils:25.4.0] /home/ehofmann/.gradle/caches/transforms-1/files-1.1/support-core-utils-25.4.0.aar/8bbd005ef37a997f7ed05fa97f394833/AndroidManifest.xml:26:9-28:38
MERGED from [com.android.support:support-core-utils:25.4.0] /home/ehofmann/.gradle/caches/transforms-1/files-1.1/support-core-utils-25.4.0.aar/8bbd005ef37a997f7ed05fa97f394833/AndroidManifest.xml:26:9-28:38
MERGED from [com.android.support:support-vector-drawable:25.4.0] /home/ehofmann/.gradle/caches/transforms-1/files-1.1/support-vector-drawable-25.4.0.aar/25207c4cdea332022e5a84e99964fdb3/AndroidManifest.xml:23:9-25:38
MERGED from [com.android.support:support-vector-drawable:25.4.0] /home/ehofmann/.gradle/caches/transforms-1/files-1.1/support-vector-drawable-25.4.0.aar/25207c4cdea332022e5a84e99964fdb3/AndroidManifest.xml:23:9-25:38
MERGED from [com.android.support:support-compat:25.4.0] /home/ehofmann/.gradle/caches/transforms-1/files-1.1/support-compat-25.4.0.aar/87cfc0bcfe55c7cf242f4299ff3fa257/AndroidManifest.xml:26:9-28:38
MERGED from [com.android.support:support-compat:25.4.0] /home/ehofmann/.gradle/caches/transforms-1/files-1.1/support-compat-25.4.0.aar/87cfc0bcfe55c7cf242f4299ff3fa257/AndroidManifest.xml:26:9-28:38
	android:value
		ADDED from [com.android.support:appcompat-v7:25.4.0] /home/ehofmann/.gradle/caches/transforms-1/files-1.1/appcompat-v7-25.4.0.aar/021bd879767a88374281eec5ba3491c1/AndroidManifest.xml:28:13-35
	android:name
		ADDED from [com.android.support:appcompat-v7:25.4.0] /home/ehofmann/.gradle/caches/transforms-1/files-1.1/appcompat-v7-25.4.0.aar/021bd879767a88374281eec5ba3491c1/AndroidManifest.xml:27:13-51
uses-permission#android.permission.BLUETOOTH_ADMIN
ADDED from [com.polidea.rxandroidble:rxandroidble:1.4.1] /home/ehofmann/.gradle/caches/transforms-1/files-1.1/rxandroidble-1.4.1.aar/cc93d24336f8d0cf9f442535fcd307fc/AndroidManifest.xml:12:5-74
MERGED from [no.nordicsemi.android:dfu:1.4.2] /home/ehofmann/.gradle/caches/transforms-1/files-1.1/dfu-1.4.2.aar/5fe75c3f7ea08927e948bc969fc342ec/AndroidManifest.xml:12:5-74
MERGED from [no.nordicsemi.android:dfu:1.4.2] /home/ehofmann/.gradle/caches/transforms-1/files-1.1/dfu-1.4.2.aar/5fe75c3f7ea08927e948bc969fc342ec/AndroidManifest.xml:12:5-74
	android:name
		ADDED from [com.polidea.rxandroidble:rxandroidble:1.4.1] /home/ehofmann/.gradle/caches/transforms-1/files-1.1/rxandroidble-1.4.1.aar/cc93d24336f8d0cf9f442535fcd307fc/AndroidManifest.xml:12:22-71
uses-permission-sdk-23#android.permission.ACCESS_COARSE_LOCATION
ADDED from [com.polidea.rxandroidble:rxandroidble:1.4.1] /home/ehofmann/.gradle/caches/transforms-1/files-1.1/rxandroidble-1.4.1.aar/cc93d24336f8d0cf9f442535fcd307fc/AndroidManifest.xml:14:5-88
	android:name
		ADDED from [com.polidea.rxandroidble:rxandroidble:1.4.1] /home/ehofmann/.gradle/caches/transforms-1/files-1.1/rxandroidble-1.4.1.aar/cc93d24336f8d0cf9f442535fcd307fc/AndroidManifest.xml:14:29-85
activity#com.google.android.gms.auth.api.signin.internal.SignInHubActivity
ADDED from [com.google.android.gms:play-services-auth:11.0.1] /home/ehofmann/.gradle/caches/transforms-1/files-1.1/play-services-auth-11.0.1.aar/0b361dd53320fe40c7b1a4ee7ffc7a6b/AndroidManifest.xml:20:9-189
	android:excludeFromRecents
		ADDED from [com.google.android.gms:play-services-auth:11.0.1] /home/ehofmann/.gradle/caches/transforms-1/files-1.1/play-services-auth-11.0.1.aar/0b361dd53320fe40c7b1a4ee7ffc7a6b/AndroidManifest.xml:20:129-162
	android:exported
		ADDED from [com.google.android.gms:play-services-auth:11.0.1] /home/ehofmann/.gradle/caches/transforms-1/files-1.1/play-services-auth-11.0.1.aar/0b361dd53320fe40c7b1a4ee7ffc7a6b/AndroidManifest.xml:20:163-187
	android:theme
		ADDED from [com.google.android.gms:play-services-auth:11.0.1] /home/ehofmann/.gradle/caches/transforms-1/files-1.1/play-services-auth-11.0.1.aar/0b361dd53320fe40c7b1a4ee7ffc7a6b/AndroidManifest.xml:20:69-128
	android:name
		ADDED from [com.google.android.gms:play-services-auth:11.0.1] /home/ehofmann/.gradle/caches/transforms-1/files-1.1/play-services-auth-11.0.1.aar/0b361dd53320fe40c7b1a4ee7ffc7a6b/AndroidManifest.xml:20:19-68
service#com.google.android.gms.auth.api.signin.RevocationBoundService
ADDED from [com.google.android.gms:play-services-auth:11.0.1] /home/ehofmann/.gradle/caches/transforms-1/files-1.1/play-services-auth-11.0.1.aar/0b361dd53320fe40c7b1a4ee7ffc7a6b/AndroidManifest.xml:24:9-184
	android:exported
		ADDED from [com.google.android.gms:play-services-auth:11.0.1] /home/ehofmann/.gradle/caches/transforms-1/files-1.1/play-services-auth-11.0.1.aar/0b361dd53320fe40c7b1a4ee7ffc7a6b/AndroidManifest.xml:24:64-87
	android:permission
		ADDED from [com.google.android.gms:play-services-auth:11.0.1] /home/ehofmann/.gradle/caches/transforms-1/files-1.1/play-services-auth-11.0.1.aar/0b361dd53320fe40c7b1a4ee7ffc7a6b/AndroidManifest.xml:24:88-182
	android:name
		ADDED from [com.google.android.gms:play-services-auth:11.0.1] /home/ehofmann/.gradle/caches/transforms-1/files-1.1/play-services-auth-11.0.1.aar/0b361dd53320fe40c7b1a4ee7ffc7a6b/AndroidManifest.xml:24:18-63
activity#com.google.android.gms.common.api.GoogleApiActivity
ADDED from [com.google.android.gms:play-services-base:11.0.1] /home/ehofmann/.gradle/caches/transforms-1/files-1.1/play-services-base-11.0.1.aar/102cb29b4c618cb9189f125a06801a64/AndroidManifest.xml:19:9-172
	android:exported
		ADDED from [com.google.android.gms:play-services-base:11.0.1] /home/ehofmann/.gradle/caches/transforms-1/files-1.1/play-services-base-11.0.1.aar/102cb29b4c618cb9189f125a06801a64/AndroidManifest.xml:19:146-170
	android:theme
		ADDED from [com.google.android.gms:play-services-base:11.0.1] /home/ehofmann/.gradle/caches/transforms-1/files-1.1/play-services-base-11.0.1.aar/102cb29b4c618cb9189f125a06801a64/AndroidManifest.xml:19:86-145
	android:name
		ADDED from [com.google.android.gms:play-services-base:11.0.1] /home/ehofmann/.gradle/caches/transforms-1/files-1.1/play-services-base-11.0.1.aar/102cb29b4c618cb9189f125a06801a64/AndroidManifest.xml:19:19-85
meta-data#com.google.android.gms.version
ADDED from [com.google.android.gms:play-services-basement:11.0.1] /home/ehofmann/.gradle/caches/transforms-1/files-1.1/play-services-basement-11.0.1.aar/0cfa67db2c278389694597fa4900987a/AndroidManifest.xml:20:9-121
	android:value
		ADDED from [com.google.android.gms:play-services-basement:11.0.1] /home/ehofmann/.gradle/caches/transforms-1/files-1.1/play-services-basement-11.0.1.aar/0cfa67db2c278389694597fa4900987a/AndroidManifest.xml:20:66-119
	android:name
		ADDED from [com.google.android.gms:play-services-basement:11.0.1] /home/ehofmann/.gradle/caches/transforms-1/files-1.1/play-services-basement-11.0.1.aar/0cfa67db2c278389694597fa4900987a/AndroidManifest.xml:20:20-65
